C:\Projects\mproject\mproject\tn.icm\tn.icm.war\src\main\java\sg\gov\ntp\tn\icm\config\Init.java
C:\Projects\mproject\mproject\tn.icm\tn.icm.war\src\main\java\sg\gov\ntp\tn\icm\config\Config.java
C:\Projects\mproject\mproject\tn.icm\tn.icm.war\src\main\java\sg\gov\ntp\tn\icm\controller\ErrorDetails.java
C:\Projects\mproject\mproject\tn.icm\tn.icm.war\src\main\java\sg\gov\ntp\tn\icm\controller\CustomizedResponseEntityExceptionHandler.java
C:\Projects\mproject\mproject\tn.icm\tn.icm.war\src\main\java\sg\gov\ntp\tn\icm\controller\StudentController.java
